{
  "options": {
    "cwd": "vendor"
  },
  "contents": [
    "jquery.js",
    "bootstrap.min.js",
    "jquery.easing.min.js",
    "classie.js",
    "cbpAnimatedHeader.js",
    "jqBootstrapValidation.js",
    "contact_me.js"
  ]
}
